%YAML 1.1
%TAG !u! tag:unity3d.com,2011:
--- !u!1 &1280605960
GameObject:
  m_ObjectHideFlags: 0
  m_CorrespondingSourceObject: {fileID: 0}
  m_PrefabInstance: {fileID: 0}
  m_PrefabAsset: {fileID: 0}
  serializedVersion: 6
  m_Component:
  - component: {fileID: 1280605961}
  - component: {fileID: 1280605962}
  m_Layer: 0
  m_Name: PLAYER
  m_TagString: Untagged
  m_Icon: {fileID: 0}
  m_NavMeshLayer: 0
  m_StaticEditorFlags: 0
  m_IsActive: 1
--- !u!4 &1280605961
Transform:
  m_ObjectHideFlags: 0
  m_CorrespondingSourceObject: {fileID: 0}
  m_PrefabInstance: {fileID: 0}
  m_PrefabAsset: {fileID: 0}
  m_GameObject: {fileID: 1280605960}
  m_LocalRotation: {x: 0, y: 0, z: 0, w: 1}
  m_LocalPosition: {x: 0, y: 1, z: -10}
  m_LocalScale: {x: 1, y: 1, z: 1}
  m_Children: []
  m_Father: {fileID: 0}
  m_RootOrder: 0
  m_LocalEulerAnglesHint: {x: 0, y: 0, z: 0}
--- !u!114 &1280605962
MonoBehaviour:
  m_ObjectHideFlags: 0
  m_CorrespondingSourceObject: {fileID: 0}
  m_PrefabInstance: {fileID: 0}
  m_PrefabAsset: {fileID: 0}
  m_GameObject: {fileID: 1280605960}
  m_Enabled: 1
  m_EditorHideFlags: 0
  m_Script: {fileID: 11500000, guid: d08f782673d0baf4c94ed58c2a8b8dbb, type: 3}
  m_Name: 
  m_EditorClassIdentifier: 
  Present1Prefab: {fileID: 176482, guid: fe1bac696975c4932b5f99db90ec1396, type: 3}
  Present2Prefab: {fileID: 154928, guid: d93be943d646d4b34844dd299ffa8f8e, type: 3}
  Present3Prefab: {fileID: 184772, guid: 27ccdd0f3c4344565b9583bc54c7c768, type: 3}
  Present4Prefab: {fileID: 114390, guid: 70ced31189bfb4a74ba8ceabbfa5e044, type: 3}
  Present5Prefab: {fileID: 192312, guid: 8bad9f9533aed47bda52ed698c6f2211, type: 3}
  score: 0
  multiplier: 1
  nextMultiplierScore: 2
  currentScore: 0
  ScoreText: {fileID: 0}
  MultiplierText: {fileID: 0}
  MultiplierMeter: {fileID: 0}
  Direction: {fileID: 0}
